{
   "baseURL": "https://grsc.cz/",
   "languageCode": "en-gb",
   "title": "Greenscreener",
   "markup": {
	   "goldmark": {
		   "renderer": {
			   "unsafe":true
		   }
	   }
   },
   "menu": {
	   "main": [
		   {
				"name":"Contact",
				"url":"#contact",
				"weight":300
		   }
	   ]
	}
}
